{
  "count": 267,
  "pageIndex": 1,
  "pageSize": 25,
  "pageCount": 11,
  "items": [
    {
      "$ref": "http://sports.core.api.espn.com/v2/sports/football/leagues/college-football/seasons/2025/coaches/2574086?lang=en&region=us"
    },
    {
      "$ref": "http://sports.core.api.espn.com/v2/sports/football/leagues/college-football/seasons/2025/coaches/560152?lang=en&region=us"
    },
    {
      "$ref": "http://sports.core.api.espn.com/v2/sports/football/leagues/college-football/seasons/2025/coaches/15744?lang=en&region=us"
    },
    {
      "$ref": "http://sports.core.api.espn.com/v2/sports/football/leagues/college-football/seasons/2025/coaches/4606664?lang=en&region=us"
    },
    {
      "$ref": "http://sports.core.api.espn.com/v2/sports/football/leagues/college-football/seasons/2025/coaches/5119667?lang=en&region=us"
    },
    {
      "$ref": "http://sports.core.api.espn.com/v2/sports/football/leagues/college-football/seasons/2025/coaches/4077317?lang=en&region=us"
    },
    {
      "$ref": "http://sports.core.api.espn.com/v2/sports/football/leagues/college-football/seasons/2025/coaches/2474035?lang=en&region=us"
    },
    {
      "$ref": "http://sports.core.api.espn.com/v2/sports/football/leagues/college-football/seasons/2025/coaches/237457?lang=en&region=us"
    },
    {
      "$ref": "http://sports.core.api.espn.com/v2/sports/football/leagues/college-football/seasons/2025/coaches/156919?lang=en&region=us"
    },
    {
      "$ref": "http://sports.core.api.espn.com/v2/sports/football/leagues/college-football/seasons/2025/coaches/559953?lang=en&region=us"
    },
    {
      "$ref": "http://sports.core.api.espn.com/v2/sports/football/leagues/college-football/seasons/2025/coaches/560250?lang=en&region=us"
    },
    {
      "$ref": "http://sports.core.api.espn.com/v2/sports/football/leagues/college-football/seasons/2025/coaches/4080620?lang=en&region=us"
    },
    {
      "$ref": "http://sports.core.api.espn.com/v2/sports/football/leagues/college-football/seasons/2025/coaches/22428?lang=en&region=us"
    },
    {
      "$ref": "http://sports.core.api.espn.com/v2/sports/football/leagues/college-football/seasons/2025/coaches/145698?lang=en&region=us"
    },
    {
      "$ref": "http://sports.core.api.espn.com/v2/sports/football/leagues/college-football/seasons/2025/coaches/4077452?lang=en&region=us"
    },
    {
      "$ref": "http://sports.core.api.espn.com/v2/sports/football/leagues/college-football/seasons/2025/coaches/560112?lang=en&region=us"
    },
    {
      "$ref": "http://sports.core.api.espn.com/v2/sports/football/leagues/college-football/seasons/2025/coaches/559936?lang=en&region=us"
    },
    {
      "$ref": "http://sports.core.api.espn.com/v2/sports/football/leagues/college-football/seasons/2025/coaches/3020287?lang=en&region=us"
    },
    {
      "$ref": "http://sports.core.api.espn.com/v2/sports/football/leagues/college-football/seasons/2025/coaches/3090551?lang=en&region=us"
    },
    {
      "$ref": "http://sports.core.api.espn.com/v2/sports/football/leagues/college-football/seasons/2025/coaches/3948466?lang=en&region=us"
    },
    {
      "$ref": "http://sports.core.api.espn.com/v2/sports/football/leagues/college-football/seasons/2025/coaches/135425?lang=en&region=us"
    },
    {
      "$ref": "http://sports.core.api.espn.com/v2/sports/football/leagues/college-football/seasons/2025/coaches/5216973?lang=en&region=us"
    },
    {
      "$ref": "http://sports.core.api.espn.com/v2/sports/football/leagues/college-football/seasons/2025/coaches/108626?lang=en&region=us"
    },
    {
      "$ref": "http://sports.core.api.espn.com/v2/sports/football/leagues/college-football/seasons/2025/coaches/4437881?lang=en&region=us"
    },
    {
      "$ref": "http://sports.core.api.espn.com/v2/sports/football/leagues/college-football/seasons/2025/coaches/175701?lang=en&region=us"
    }
  ]
}