{
  "count": 94536,
  "pageIndex": 300,
  "pageSize": 100,
  "pageCount": 946,
  "items": [
    { "$ref": "http://sports.core.api.espn.com/v2/sports/football/leagues/college-football/seasons/2024/athletes/4917301?lang=en&region=us" },
    { "$ref": "http://sports.core.api.espn.com/v2/sports/football/leagues/college-football/seasons/2024/athletes/5078102?lang=en&region=us" },
    { "$ref": "http://sports.core.api.espn.com/v2/sports/football/leagues/college-football/seasons/2024/athletes/378310?lang=en&region=us" },
    { "$ref": "http://sports.core.api.espn.com/v2/sports/football/leagues/college-football/seasons/2024/athletes/3117893?lang=en&region=us" },
    { "$ref": "http://sports.core.api.espn.com/v2/sports/football/leagues/college-football/seasons/2024/athletes/123348?lang=en&region=us" },
    { "$ref": "http://sports.core.api.espn.com/v2/sports/football/leagues/college-football/seasons/2024/athletes/4255931?lang=en&region=us" },
    { "$ref": "http://sports.core.api.espn.com/v2/sports/football/leagues/college-football/seasons/2024/athletes/183564?lang=en&region=us" },
    { "$ref": "http://sports.core.api.espn.com/v2/sports/football/leagues/college-football/seasons/2024/athletes/4568488?lang=en&region=us" },
    { "$ref": "http://sports.core.api.espn.com/v2/sports/football/leagues/college-football/seasons/2024/athletes/189958?lang=en&region=us" },
    { "$ref": "http://sports.core.api.espn.com/v2/sports/football/leagues/college-football/seasons/2024/athletes/3139505?lang=en&region=us" },
    { "$ref": "http://sports.core.api.espn.com/v2/sports/football/leagues/college-football/seasons/2024/athletes/4362011?lang=en&region=us" },
    { "$ref": "http://sports.core.api.espn.com/v2/sports/football/leagues/college-football/seasons/2024/athletes/508527?lang=en&region=us" },
    { "$ref": "http://sports.core.api.espn.com/v2/sports/football/leagues/college-football/seasons/2024/athletes/501654?lang=en&region=us" },
    { "$ref": "http://sports.core.api.espn.com/v2/sports/football/leagues/college-football/seasons/2024/athletes/483270?lang=en&region=us" },
    { "$ref": "http://sports.core.api.espn.com/v2/sports/football/leagues/college-football/seasons/2024/athletes/3892883?lang=en&region=us" },
    { "$ref": "http://sports.core.api.espn.com/v2/sports/football/leagues/college-football/seasons/2024/athletes/380635?lang=en&region=us" },
    { "$ref": "http://sports.core.api.espn.com/v2/sports/football/leagues/college-football/seasons/2024/athletes/559608?lang=en&region=us" },
    { "$ref": "http://sports.core.api.espn.com/v2/sports/football/leagues/college-football/seasons/2024/athletes/546633?lang=en&region=us" },
    { "$ref": "http://sports.core.api.espn.com/v2/sports/football/leagues/college-football/seasons/2024/athletes/4247842?lang=en&region=us" },
    { "$ref": "http://sports.core.api.espn.com/v2/sports/football/leagues/college-football/seasons/2024/athletes/5091293?lang=en&region=us" },
    { "$ref": "http://sports.core.api.espn.com/v2/sports/football/leagues/college-football/seasons/2024/athletes/3124070?lang=en&region=us" },
    { "$ref": "http://sports.core.api.espn.com/v2/sports/football/leagues/college-football/seasons/2024/athletes/4042675?lang=en&region=us" },
    { "$ref": "http://sports.core.api.espn.com/v2/sports/football/leagues/college-football/seasons/2024/athletes/4568450?lang=en&region=us" },
    { "$ref": "http://sports.core.api.espn.com/v2/sports/football/leagues/college-football/seasons/2024/athletes/4781298?lang=en&region=us" },
    { "$ref": "http://sports.core.api.espn.com/v2/sports/football/leagues/college-football/seasons/2024/athletes/534253?lang=en&region=us" },
    { "$ref": "http://sports.core.api.espn.com/v2/sports/football/leagues/college-football/seasons/2024/athletes/551537?lang=en&region=us" },
    { "$ref": "http://sports.core.api.espn.com/v2/sports/football/leagues/college-football/seasons/2024/athletes/513588?lang=en&region=us" },
    { "$ref": "http://sports.core.api.espn.com/v2/sports/football/leagues/college-football/seasons/2024/athletes/3944870?lang=en&region=us" },
    { "$ref": "http://sports.core.api.espn.com/v2/sports/football/leagues/college-football/seasons/2024/athletes/532930?lang=en&region=us" },
    { "$ref": "http://sports.core.api.espn.com/v2/sports/football/leagues/college-football/seasons/2024/athletes/3943350?lang=en&region=us" },
    { "$ref": "http://sports.core.api.espn.com/v2/sports/football/leagues/college-football/seasons/2024/athletes/480899?lang=en&region=us" },
    { "$ref": "http://sports.core.api.espn.com/v2/sports/football/leagues/college-football/seasons/2024/athletes/168998?lang=en&region=us" },
    { "$ref": "http://sports.core.api.espn.com/v2/sports/football/leagues/college-football/seasons/2024/athletes/3917912?lang=en&region=us" },
    { "$ref": "http://sports.core.api.espn.com/v2/sports/football/leagues/college-football/seasons/2024/athletes/505997?lang=en&region=us" },
    { "$ref": "http://sports.core.api.espn.com/v2/sports/football/leagues/college-football/seasons/2024/athletes/4569944?lang=en&region=us" },
    { "$ref": "http://sports.core.api.espn.com/v2/sports/football/leagues/college-football/seasons/2024/athletes/170309?lang=en&region=us" },
    { "$ref": "http://sports.core.api.espn.com/v2/sports/football/leagues/college-football/seasons/2024/athletes/108984?lang=en&region=us" },
    { "$ref": "http://sports.core.api.espn.com/v2/sports/football/leagues/college-football/seasons/2024/athletes/5093880?lang=en&region=us" },
    { "$ref": "http://sports.core.api.espn.com/v2/sports/football/leagues/college-football/seasons/2024/athletes/5098806?lang=en&region=us" },
    { "$ref": "http://sports.core.api.espn.com/v2/sports/football/leagues/college-football/seasons/2024/athletes/4360323?lang=en&region=us" },
    { "$ref": "http://sports.core.api.espn.com/v2/sports/football/leagues/college-football/seasons/2024/athletes/3895489?lang=en&region=us" },
    { "$ref": "http://sports.core.api.espn.com/v2/sports/football/leagues/college-football/seasons/2024/athletes/5220243?lang=en&region=us" },
    { "$ref": "http://sports.core.api.espn.com/v2/sports/football/leagues/college-football/seasons/2024/athletes/4038458?lang=en&region=us" },
    { "$ref": "http://sports.core.api.espn.com/v2/sports/football/leagues/college-football/seasons/2024/athletes/5219177?lang=en&region=us" },
    { "$ref": "http://sports.core.api.espn.com/v2/sports/football/leagues/college-football/seasons/2024/athletes/4869242?lang=en&region=us" },
    { "$ref": "http://sports.core.api.espn.com/v2/sports/football/leagues/college-football/seasons/2024/athletes/4927305?lang=en&region=us" },
    { "$ref": "http://sports.core.api.espn.com/v2/sports/football/leagues/college-football/seasons/2024/athletes/4360225?lang=en&region=us" },
    { "$ref": "http://sports.core.api.espn.com/v2/sports/football/leagues/college-football/seasons/2024/athletes/4376248?lang=en&region=us" },
    { "$ref": "http://sports.core.api.espn.com/v2/sports/football/leagues/college-football/seasons/2024/athletes/5079435?lang=en&region=us" },
    { "$ref": "http://sports.core.api.espn.com/v2/sports/football/leagues/college-football/seasons/2024/athletes/119021?lang=en&region=us" },
    { "$ref": "http://sports.core.api.espn.com/v2/sports/football/leagues/college-football/seasons/2024/athletes/5150990?lang=en&region=us" },
    { "$ref": "http://sports.core.api.espn.com/v2/sports/football/leagues/college-football/seasons/2024/athletes/3929839?lang=en&region=us" },
    { "$ref": "http://sports.core.api.espn.com/v2/sports/football/leagues/college-football/seasons/2024/athletes/4036348?lang=en&region=us" },
    { "$ref": "http://sports.core.api.espn.com/v2/sports/football/leagues/college-football/seasons/2024/athletes/189187?lang=en&region=us" },
    { "$ref": "http://sports.core.api.espn.com/v2/sports/football/leagues/college-football/seasons/2024/athletes/4362998?lang=en&region=us" },
    { "$ref": "http://sports.core.api.espn.com/v2/sports/football/leagues/college-football/seasons/2024/athletes/4361696?lang=en&region=us" },
    { "$ref": "http://sports.core.api.espn.com/v2/sports/football/leagues/college-football/seasons/2024/athletes/169160?lang=en&region=us" },
    { "$ref": "http://sports.core.api.espn.com/v2/sports/football/leagues/college-football/seasons/2024/athletes/169161?lang=en&region=us" },
    { "$ref": "http://sports.core.api.espn.com/v2/sports/football/leagues/college-football/seasons/2024/athletes/4239786?lang=en&region=us" },
    { "$ref": "http://sports.core.api.espn.com/v2/sports/football/leagues/college-football/seasons/2024/athletes/517200?lang=en&region=us" },
    { "$ref": "http://sports.core.api.espn.com/v2/sports/football/leagues/college-football/seasons/2024/athletes/160107?lang=en&region=us" },
    { "$ref": "http://sports.core.api.espn.com/v2/sports/football/leagues/college-football/seasons/2024/athletes/4697669?lang=en&region=us" },
    { "$ref": "http://sports.core.api.espn.com/v2/sports/football/leagues/college-football/seasons/2024/athletes/5085761?lang=en&region=us" },
    { "$ref": "http://sports.core.api.espn.com/v2/sports/football/leagues/college-football/seasons/2024/athletes/5221038?lang=en&region=us" },
    { "$ref": "http://sports.core.api.espn.com/v2/sports/football/leagues/college-football/seasons/2024/athletes/3128644?lang=en&region=us" },
    { "$ref": "http://sports.core.api.espn.com/v2/sports/football/leagues/college-football/seasons/2024/athletes/4261318?lang=en&region=us" },
    { "$ref": "http://sports.core.api.espn.com/v2/sports/football/leagues/college-football/seasons/2024/athletes/158095?lang=en&region=us" },
    { "$ref": "http://sports.core.api.espn.com/v2/sports/football/leagues/college-football/seasons/2024/athletes/4373028?lang=en&region=us" },
    { "$ref": "http://sports.core.api.espn.com/v2/sports/football/leagues/college-football/seasons/2024/athletes/4035320?lang=en&region=us" },
    { "$ref": "http://sports.core.api.espn.com/v2/sports/football/leagues/college-football/seasons/2024/athletes/4035348?lang=en&region=us" },
    { "$ref": "http://sports.core.api.espn.com/v2/sports/football/leagues/college-football/seasons/2024/athletes/504818?lang=en&region=us" },
    { "$ref": "http://sports.core.api.espn.com/v2/sports/football/leagues/college-football/seasons/2024/athletes/516011?lang=en&region=us" },
    { "$ref": "http://sports.core.api.espn.com/v2/sports/football/leagues/college-football/seasons/2024/athletes/550450?lang=en&region=us" },
    { "$ref": "http://sports.core.api.espn.com/v2/sports/football/leagues/college-football/seasons/2024/athletes/4040917?lang=en&region=us" },
    { "$ref": "http://sports.core.api.espn.com/v2/sports/football/leagues/college-football/seasons/2024/athletes/5160154?lang=en&region=us" },
    { "$ref": "http://sports.core.api.espn.com/v2/sports/football/leagues/college-football/seasons/2024/athletes/4575841?lang=en&region=us" },
    { "$ref": "http://sports.core.api.espn.com/v2/sports/football/leagues/college-football/seasons/2024/athletes/4277560?lang=en&region=us" },
    { "$ref": "http://sports.core.api.espn.com/v2/sports/football/leagues/college-football/seasons/2024/athletes/535574?lang=en&region=us" },
    { "$ref": "http://sports.core.api.espn.com/v2/sports/football/leagues/college-football/seasons/2024/athletes/482740?lang=en&region=us" },
    { "$ref": "http://sports.core.api.espn.com/v2/sports/football/leagues/college-football/seasons/2024/athletes/237035?lang=en&region=us" },
    { "$ref": "http://sports.core.api.espn.com/v2/sports/football/leagues/college-football/seasons/2024/athletes/559596?lang=en&region=us" },
    { "$ref": "http://sports.core.api.espn.com/v2/sports/football/leagues/college-football/seasons/2024/athletes/4876754?lang=en&region=us" },
    { "$ref": "http://sports.core.api.espn.com/v2/sports/football/leagues/college-football/seasons/2024/athletes/5219023?lang=en&region=us" },
    { "$ref": "http://sports.core.api.espn.com/v2/sports/football/leagues/college-football/seasons/2024/athletes/4432124?lang=en&region=us" },
    { "$ref": "http://sports.core.api.espn.com/v2/sports/football/leagues/college-football/seasons/2024/athletes/4429648?lang=en&region=us" },
    { "$ref": "http://sports.core.api.espn.com/v2/sports/football/leagues/college-football/seasons/2024/athletes/189609?lang=en&region=us" },
    { "$ref": "http://sports.core.api.espn.com/v2/sports/football/leagues/college-football/seasons/2024/athletes/4259617?lang=en&region=us" },
    { "$ref": "http://sports.core.api.espn.com/v2/sports/football/leagues/college-football/seasons/2024/athletes/3922139?lang=en&region=us" },
    { "$ref": "http://sports.core.api.espn.com/v2/sports/football/leagues/college-football/seasons/2024/athletes/531234?lang=en&region=us" },
    { "$ref": "http://sports.core.api.espn.com/v2/sports/football/leagues/college-football/seasons/2024/athletes/4240618?lang=en&region=us" },
    { "$ref": "http://sports.core.api.espn.com/v2/sports/football/leagues/college-football/seasons/2024/athletes/4244076?lang=en&region=us" },
    { "$ref": "http://sports.core.api.espn.com/v2/sports/football/leagues/college-football/seasons/2024/athletes/4035871?lang=en&region=us" },
    { "$ref": "http://sports.core.api.espn.com/v2/sports/football/leagues/college-football/seasons/2024/athletes/531130?lang=en&region=us" },
    { "$ref": "http://sports.core.api.espn.com/v2/sports/football/leagues/college-football/seasons/2024/athletes/183115?lang=en&region=us" },
    { "$ref": "http://sports.core.api.espn.com/v2/sports/football/leagues/college-football/seasons/2024/athletes/3127248?lang=en&region=us" },
    { "$ref": "http://sports.core.api.espn.com/v2/sports/football/leagues/college-football/seasons/2024/athletes/5078101?lang=en&region=us" },
    { "$ref": "http://sports.core.api.espn.com/v2/sports/football/leagues/college-football/seasons/2024/athletes/4049454?lang=en&region=us" },
    { "$ref": "http://sports.core.api.espn.com/v2/sports/football/leagues/college-football/seasons/2024/athletes/551025?lang=en&region=us" },
    { "$ref": "http://sports.core.api.espn.com/v2/sports/football/leagues/college-football/seasons/2024/athletes/4280322?lang=en&region=us" },
    { "$ref": "http://sports.core.api.espn.com/v2/sports/football/leagues/college-football/seasons/2024/athletes/4689893?lang=en&region=us" }
  ]
}