{
  "$ref": "http://sports.core.api.espn.com/v2/sports/football/leagues/college-football/franchises/99/awards?lang=en",
  "count": 30,
  "pageIndex": 1,
  "pageSize": 25,
  "pageCount": 2,
  "items": [
    {
      "$ref": "http://sports.core.api.espn.com/v2/sports/football/leagues/college-football/seasons/2023/awards/3?lang=en"
    },
    {
      "$ref": "http://sports.core.api.espn.com/v2/sports/football/leagues/college-football/seasons/2023/awards/9?lang=en"
    },
    {
      "$ref": "http://sports.core.api.espn.com/v2/sports/football/leagues/college-football/seasons/2023/awards/12?lang=en"
    },
    {
      "$ref": "http://sports.core.api.espn.com/v2/sports/football/leagues/college-football/seasons/2023/awards/20?lang=en"
    },
    {
      "$ref": "http://sports.core.api.espn.com/v2/sports/football/leagues/college-football/seasons/2019/awards/3?lang=en"
    },
    {
      "$ref": "http://sports.core.api.espn.com/v2/sports/football/leagues/college-football/seasons/2019/awards/6?lang=en"
    },
    {
      "$ref": "http://sports.core.api.espn.com/v2/sports/football/leagues/college-football/seasons/2019/awards/9?lang=en"
    },
    {
      "$ref": "http://sports.core.api.espn.com/v2/sports/football/leagues/college-football/seasons/2019/awards/10?lang=en"
    },
    {
      "$ref": "http://sports.core.api.espn.com/v2/sports/football/leagues/college-football/seasons/2019/awards/12?lang=en"
    },
    {
      "$ref": "http://sports.core.api.espn.com/v2/sports/football/leagues/college-football/seasons/2019/awards/14?lang=en"
    },
    {
      "$ref": "http://sports.core.api.espn.com/v2/sports/football/leagues/college-football/seasons/2019/awards/20?lang=en"
    },
    {
      "$ref": "http://sports.core.api.espn.com/v2/sports/football/leagues/college-football/seasons/2019/awards/27?lang=en"
    },
    {
      "$ref": "http://sports.core.api.espn.com/v2/sports/football/leagues/college-football/seasons/2019/awards/29?lang=en"
    },
    {
      "$ref": "http://sports.core.api.espn.com/v2/sports/football/leagues/college-football/seasons/2018/awards/4?lang=en"
    },
    {
      "$ref": "http://sports.core.api.espn.com/v2/sports/football/leagues/college-football/seasons/2013/awards/31?lang=en"
    },
    {
      "$ref": "http://sports.core.api.espn.com/v2/sports/football/leagues/college-football/seasons/2011/awards/2?lang=en"
    },
    {
      "$ref": "http://sports.core.api.espn.com/v2/sports/football/leagues/college-football/seasons/2011/awards/10?lang=en"
    },
    {
      "$ref": "http://sports.core.api.espn.com/v2/sports/football/leagues/college-football/seasons/2011/awards/27?lang=en"
    },
    {
      "$ref": "http://sports.core.api.espn.com/v2/sports/football/leagues/college-football/seasons/2011/awards/29?lang=en"
    },
    {
      "$ref": "http://sports.core.api.espn.com/v2/sports/football/leagues/college-football/seasons/2010/awards/2?lang=en"
    },
    {
      "$ref": "http://sports.core.api.espn.com/v2/sports/football/leagues/college-football/seasons/2010/awards/10?lang=en"
    },
    {
      "$ref": "http://sports.core.api.espn.com/v2/sports/football/leagues/college-football/seasons/2007/awards/15?lang=en"
    },
    {
      "$ref": "http://sports.core.api.espn.com/v2/sports/football/leagues/college-football/seasons/2007/awards/17?lang=en"
    },
    {
      "$ref": "http://sports.core.api.espn.com/v2/sports/football/leagues/college-football/seasons/2007/awards/19?lang=en"
    },
    {
      "$ref": "http://sports.core.api.espn.com/v2/sports/football/leagues/college-football/seasons/2007/awards/30?lang=en"
    }
  ]
}