{
  "count": 2,
  "pageIndex": 1,
  "pageSize": 1,
  "pageCount": 2,
  "items": [
    { "ref": "http://some.uri.com/athlete/3" }
  ]
}
