{
  "count": 102,
  "pageIndex": 1,
  "pageSize": 25,
  "pageCount": 5,
  "items": [
    {
      "$ref": "http://sports.core.api.espn.com/v2/sports/football/leagues/college-football/seasons/2025/athletes/4870586?lang=en"
    },
    {
      "$ref": "http://sports.core.api.espn.com/v2/sports/football/leagues/college-football/seasons/2025/athletes/4873636?lang=en"
    },
    {
      "$ref": "http://sports.core.api.espn.com/v2/sports/football/leagues/college-football/seasons/2025/athletes/4691138?lang=en"
    },
    {
      "$ref": "http://sports.core.api.espn.com/v2/sports/football/leagues/college-football/seasons/2025/athletes/5079309?lang=en"
    },
    {
      "$ref": "http://sports.core.api.espn.com/v2/sports/football/leagues/college-football/seasons/2025/athletes/5218721?lang=en"
    },
    {
      "$ref": "http://sports.core.api.espn.com/v2/sports/football/leagues/college-football/seasons/2025/athletes/5150414?lang=en"
    },
    {
      "$ref": "http://sports.core.api.espn.com/v2/sports/football/leagues/college-football/seasons/2025/athletes/4794108?lang=en"
    },
    {
      "$ref": "http://sports.core.api.espn.com/v2/sports/football/leagues/college-football/seasons/2025/athletes/5147373?lang=en"
    },
    {
      "$ref": "http://sports.core.api.espn.com/v2/sports/football/leagues/college-football/seasons/2025/athletes/4714298?lang=en"
    },
    {
      "$ref": "http://sports.core.api.espn.com/v2/sports/football/leagues/college-football/seasons/2025/athletes/5125302?lang=en"
    },
    {
      "$ref": "http://sports.core.api.espn.com/v2/sports/football/leagues/college-football/seasons/2025/athletes/4685294?lang=en"
    },
    {
      "$ref": "http://sports.core.api.espn.com/v2/sports/football/leagues/college-football/seasons/2025/athletes/5139524?lang=en"
    },
    {
      "$ref": "http://sports.core.api.espn.com/v2/sports/football/leagues/college-football/seasons/2025/athletes/5110449?lang=en"
    },
    {
      "$ref": "http://sports.core.api.espn.com/v2/sports/football/leagues/college-football/seasons/2025/athletes/5113179?lang=en"
    },
    {
      "$ref": "http://sports.core.api.espn.com/v2/sports/football/leagues/college-football/seasons/2025/athletes/5147165?lang=en"
    },
    {
      "$ref": "http://sports.core.api.espn.com/v2/sports/football/leagues/college-football/seasons/2025/athletes/4923054?lang=en"
    },
    {
      "$ref": "http://sports.core.api.espn.com/v2/sports/football/leagues/college-football/seasons/2025/athletes/5079384?lang=en"
    },
    {
      "$ref": "http://sports.core.api.espn.com/v2/sports/football/leagues/college-football/seasons/2025/athletes/4870645?lang=en"
    },
    {
      "$ref": "http://sports.core.api.espn.com/v2/sports/football/leagues/college-football/seasons/2025/athletes/5160219?lang=en"
    },
    {
      "$ref": "http://sports.core.api.espn.com/v2/sports/football/leagues/college-football/seasons/2025/athletes/5229443?lang=en"
    },
    {
      "$ref": "http://sports.core.api.espn.com/v2/sports/football/leagues/college-football/seasons/2025/athletes/5218724?lang=en"
    },
    {
      "$ref": "http://sports.core.api.espn.com/v2/sports/football/leagues/college-football/seasons/2025/athletes/4605951?lang=en"
    },
    {
      "$ref": "http://sports.core.api.espn.com/v2/sports/football/leagues/college-football/seasons/2025/athletes/5095992?lang=en"
    },
    {
      "$ref": "http://sports.core.api.espn.com/v2/sports/football/leagues/college-football/seasons/2025/athletes/5110446?lang=en"
    },
    {
      "$ref": "http://sports.core.api.espn.com/v2/sports/football/leagues/college-football/seasons/2025/athletes/5081130?lang=en"
    }
  ]
}