{
    "count": 37680,
    "pageIndex": 1,
    "pageSize": 10,
    "pageCount": 3768,
    "items": [
        {
            "$ref": "http://sports.core.api.espn.com/v2/sports/baseball/leagues/mlb/seasons/2026/athletes/1?lang=en&region=us"
        },
        {
            "$ref": "http://sports.core.api.espn.com/v2/sports/baseball/leagues/mlb/seasons/2026/athletes/2?lang=en&region=us"
        },
        {
            "$ref": "http://sports.core.api.espn.com/v2/sports/baseball/leagues/mlb/seasons/2026/athletes/3?lang=en&region=us"
        },
        {
            "$ref": "http://sports.core.api.espn.com/v2/sports/baseball/leagues/mlb/seasons/2026/athletes/4?lang=en&region=us"
        },
        {
            "$ref": "http://sports.core.api.espn.com/v2/sports/baseball/leagues/mlb/seasons/2026/athletes/5?lang=en&region=us"
        },
        {
            "$ref": "http://sports.core.api.espn.com/v2/sports/baseball/leagues/mlb/seasons/2026/athletes/6?lang=en&region=us"
        },
        {
            "$ref": "http://sports.core.api.espn.com/v2/sports/baseball/leagues/mlb/seasons/2026/athletes/7?lang=en&region=us"
        },
        {
            "$ref": "http://sports.core.api.espn.com/v2/sports/baseball/leagues/mlb/seasons/2026/athletes/8?lang=en&region=us"
        },
        {
            "$ref": "http://sports.core.api.espn.com/v2/sports/baseball/leagues/mlb/seasons/2026/athletes/9?lang=en&region=us"
        },
        {
            "$ref": "http://sports.core.api.espn.com/v2/sports/baseball/leagues/mlb/seasons/2026/athletes/10?lang=en&region=us"
        }
    ]
}
