{
    "count": 151,
    "pageIndex": 1,
    "pageSize": 10,
    "pageCount": 16,
    "items": [
        {
            "$ref": "http://sports.core.api.espn.com/v2/sports/baseball/leagues/mlb/seasons/2026?lang=en&region=us"
        },
        {
            "$ref": "http://sports.core.api.espn.com/v2/sports/baseball/leagues/mlb/seasons/2025?lang=en&region=us"
        },
        {
            "$ref": "http://sports.core.api.espn.com/v2/sports/baseball/leagues/mlb/seasons/2024?lang=en&region=us"
        },
        {
            "$ref": "http://sports.core.api.espn.com/v2/sports/baseball/leagues/mlb/seasons/2023?lang=en&region=us"
        },
        {
            "$ref": "http://sports.core.api.espn.com/v2/sports/baseball/leagues/mlb/seasons/2022?lang=en&region=us"
        },
        {
            "$ref": "http://sports.core.api.espn.com/v2/sports/baseball/leagues/mlb/seasons/2021?lang=en&region=us"
        },
        {
            "$ref": "http://sports.core.api.espn.com/v2/sports/baseball/leagues/mlb/seasons/2020?lang=en&region=us"
        },
        {
            "$ref": "http://sports.core.api.espn.com/v2/sports/baseball/leagues/mlb/seasons/2019?lang=en&region=us"
        },
        {
            "$ref": "http://sports.core.api.espn.com/v2/sports/baseball/leagues/mlb/seasons/2018?lang=en&region=us"
        },
        {
            "$ref": "http://sports.core.api.espn.com/v2/sports/baseball/leagues/mlb/seasons/2017?lang=en&region=us"
        }
    ]
}
