{
    "count": 171,
    "pageIndex": 1,
    "pageSize": 50,
    "pageCount": 4,
    "items": [
        {
            "$ref": "http://sports.core.api.espn.com/v2/sports/baseball/leagues/mlb/venues/1?lang=en&region=us"
        },
        {
            "$ref": "http://sports.core.api.espn.com/v2/sports/baseball/leagues/mlb/venues/2?lang=en&region=us"
        },
        {
            "$ref": "http://sports.core.api.espn.com/v2/sports/baseball/leagues/mlb/venues/3?lang=en&region=us"
        },
        {
            "$ref": "http://sports.core.api.espn.com/v2/sports/baseball/leagues/mlb/venues/4?lang=en&region=us"
        },
        {
            "$ref": "http://sports.core.api.espn.com/v2/sports/baseball/leagues/mlb/venues/5?lang=en&region=us"
        },
        {
            "$ref": "http://sports.core.api.espn.com/v2/sports/baseball/leagues/mlb/venues/6?lang=en&region=us"
        },
        {
            "$ref": "http://sports.core.api.espn.com/v2/sports/baseball/leagues/mlb/venues/7?lang=en&region=us"
        },
        {
            "$ref": "http://sports.core.api.espn.com/v2/sports/baseball/leagues/mlb/venues/8?lang=en&region=us"
        },
        {
            "$ref": "http://sports.core.api.espn.com/v2/sports/baseball/leagues/mlb/venues/9?lang=en&region=us"
        },
        {
            "$ref": "http://sports.core.api.espn.com/v2/sports/baseball/leagues/mlb/venues/10?lang=en&region=us"
        },
        {
            "$ref": "http://sports.core.api.espn.com/v2/sports/baseball/leagues/mlb/venues/12?lang=en&region=us"
        },
        {
            "$ref": "http://sports.core.api.espn.com/v2/sports/baseball/leagues/mlb/venues/13?lang=en&region=us"
        },
        {
            "$ref": "http://sports.core.api.espn.com/v2/sports/baseball/leagues/mlb/venues/14?lang=en&region=us"
        },
        {
            "$ref": "http://sports.core.api.espn.com/v2/sports/baseball/leagues/mlb/venues/15?lang=en&region=us"
        },
        {
            "$ref": "http://sports.core.api.espn.com/v2/sports/baseball/leagues/mlb/venues/16?lang=en&region=us"
        },
        {
            "$ref": "http://sports.core.api.espn.com/v2/sports/baseball/leagues/mlb/venues/17?lang=en&region=us"
        },
        {
            "$ref": "http://sports.core.api.espn.com/v2/sports/baseball/leagues/mlb/venues/18?lang=en&region=us"
        },
        {
            "$ref": "http://sports.core.api.espn.com/v2/sports/baseball/leagues/mlb/venues/19?lang=en&region=us"
        },
        {
            "$ref": "http://sports.core.api.espn.com/v2/sports/baseball/leagues/mlb/venues/21?lang=en&region=us"
        },
        {
            "$ref": "http://sports.core.api.espn.com/v2/sports/baseball/leagues/mlb/venues/22?lang=en&region=us"
        },
        {
            "$ref": "http://sports.core.api.espn.com/v2/sports/baseball/leagues/mlb/venues/23?lang=en&region=us"
        },
        {
            "$ref": "http://sports.core.api.espn.com/v2/sports/baseball/leagues/mlb/venues/24?lang=en&region=us"
        },
        {
            "$ref": "http://sports.core.api.espn.com/v2/sports/baseball/leagues/mlb/venues/25?lang=en&region=us"
        },
        {
            "$ref": "http://sports.core.api.espn.com/v2/sports/baseball/leagues/mlb/venues/26?lang=en&region=us"
        },
        {
            "$ref": "http://sports.core.api.espn.com/v2/sports/baseball/leagues/mlb/venues/27?lang=en&region=us"
        },
        {
            "$ref": "http://sports.core.api.espn.com/v2/sports/baseball/leagues/mlb/venues/28?lang=en&region=us"
        },
        {
            "$ref": "http://sports.core.api.espn.com/v2/sports/baseball/leagues/mlb/venues/29?lang=en&region=us"
        },
        {
            "$ref": "http://sports.core.api.espn.com/v2/sports/baseball/leagues/mlb/venues/30?lang=en&region=us"
        },
        {
            "$ref": "http://sports.core.api.espn.com/v2/sports/baseball/leagues/mlb/venues/31?lang=en&region=us"
        },
        {
            "$ref": "http://sports.core.api.espn.com/v2/sports/baseball/leagues/mlb/venues/32?lang=en&region=us"
        },
        {
            "$ref": "http://sports.core.api.espn.com/v2/sports/baseball/leagues/mlb/venues/33?lang=en&region=us"
        },
        {
            "$ref": "http://sports.core.api.espn.com/v2/sports/baseball/leagues/mlb/venues/34?lang=en&region=us"
        },
        {
            "$ref": "http://sports.core.api.espn.com/v2/sports/baseball/leagues/mlb/venues/35?lang=en&region=us"
        },
        {
            "$ref": "http://sports.core.api.espn.com/v2/sports/baseball/leagues/mlb/venues/36?lang=en&region=us"
        },
        {
            "$ref": "http://sports.core.api.espn.com/v2/sports/baseball/leagues/mlb/venues/37?lang=en&region=us"
        },
        {
            "$ref": "http://sports.core.api.espn.com/v2/sports/baseball/leagues/mlb/venues/38?lang=en&region=us"
        },
        {
            "$ref": "http://sports.core.api.espn.com/v2/sports/baseball/leagues/mlb/venues/39?lang=en&region=us"
        },
        {
            "$ref": "http://sports.core.api.espn.com/v2/sports/baseball/leagues/mlb/venues/40?lang=en&region=us"
        },
        {
            "$ref": "http://sports.core.api.espn.com/v2/sports/baseball/leagues/mlb/venues/41?lang=en&region=us"
        },
        {
            "$ref": "http://sports.core.api.espn.com/v2/sports/baseball/leagues/mlb/venues/42?lang=en&region=us"
        },
        {
            "$ref": "http://sports.core.api.espn.com/v2/sports/baseball/leagues/mlb/venues/43?lang=en&region=us"
        },
        {
            "$ref": "http://sports.core.api.espn.com/v2/sports/baseball/leagues/mlb/venues/44?lang=en&region=us"
        },
        {
            "$ref": "http://sports.core.api.espn.com/v2/sports/baseball/leagues/mlb/venues/45?lang=en&region=us"
        },
        {
            "$ref": "http://sports.core.api.espn.com/v2/sports/baseball/leagues/mlb/venues/46?lang=en&region=us"
        },
        {
            "$ref": "http://sports.core.api.espn.com/v2/sports/baseball/leagues/mlb/venues/47?lang=en&region=us"
        },
        {
            "$ref": "http://sports.core.api.espn.com/v2/sports/baseball/leagues/mlb/venues/48?lang=en&region=us"
        },
        {
            "$ref": "http://sports.core.api.espn.com/v2/sports/baseball/leagues/mlb/venues/49?lang=en&region=us"
        },
        {
            "$ref": "http://sports.core.api.espn.com/v2/sports/baseball/leagues/mlb/venues/50?lang=en&region=us"
        },
        {
            "$ref": "http://sports.core.api.espn.com/v2/sports/baseball/leagues/mlb/venues/51?lang=en&region=us"
        },
        {
            "$ref": "http://sports.core.api.espn.com/v2/sports/baseball/leagues/mlb/venues/52?lang=en&region=us"
        }
    ]
}
